Data Analysis with R
…
"A **data frame** is a rectangular collection of variables (in the columns) and 
observations (in the rows)." 
([*R4DS*](http://r4ds.had.co.nz/data-visualisation.html#first-steps))

"Tibble" is the tidyverse version of a data frame.

--

```r
mpg
```

```
## # A tibble: 234 × 11
##    manufacturer      model displ  year   cyl      trans   drv   cty   hwy
##           <chr>      <chr> <dbl> <int> <int>      <chr> <chr> <int> <int>
## 1          audi         a4   1.8  1999     4   auto(l5)     f    18    29
## 2          audi         a4   1.8  1999     4 manual(m5)     f    21    29
## 3          audi         a4   2.0  2008     4 manual(m6)     f    20    31
## 4          audi         a4   2.0  2008     4   auto(av)     f    21    30
## 5          audi         a4   2.8  1999     6   auto(l5)     f    16    26
## 6          audi         a4   2.8  1999     6 manual(m5)     f    18    26
## 7          audi         a4   3.1  2008     6   auto(av)     f    18    27
## 8          audi a4 quattro   1.8  1999     4 manual(m5)     4    18    26
## 9          audi a4 quattro   1.8  1999     4   auto(l5)     4    16    25
## 10         audi a4 quattro   2.0  2008     4 manual(m6)     4    20    28
## # ... with 224 more rows, and 2 more variables: fl <chr>, class <chr>
```
…
**`group_by()`** changes these functions from working on the whole data frame to 
working on subsets of the data frame group-by-group.

---

# `dplyr::`**`select()`**

**`select()`** picks variables (columns of a data frame) by their names.

```r
select(ggplot2::mpg, manufacturer, displ, cty, hwy)
```

```
## # A tibble: 234 × 4
##    manufacturer displ   cty   hwy
##           <chr> <dbl> <int> <int>
## 1          audi   1.8    18    29
## 2          audi   1.8    21    29
## 3          audi   2.0    20    31
## 4          audi   2.0    21    30
## 5          audi   2.8    16    26
## 6          audi   2.8    18    26
## 7          audi   3.1    18    27
## 8          audi   1.8    18    26
## 9          audi   1.8    16    25
## 10         audi   2.0    20    28
## # ... with 224 more rows
```

---

# `dplyr::`**`select()`**

The new data frame can be assigned to a new object:

```r
small_mpg <- select(ggplot2::mpg, manufacturer, displ, cty, hwy)
small_mpg
```

```
## # A tibble: 234 × 4
##    manufacturer displ   cty   hwy
##           <chr> <dbl> <int> <int>
## 1          audi   1.8    18    29
## 2          audi   1.8    21    29
## 3          audi   2.0    20    31
## 4          audi   2.0    21    30
## 5          audi   2.8    16    26
## 6          audi   2.8    18    26
## 7          audi   3.1    18    27
## 8          audi   1.8    18    26
## 9          audi   1.8    16    25
## 10         audi   2.0    20    28
## # ... with 224 more rows
```
…
---

# `dplyr::`**`filter()`**

```r
filter(small_mpg, cty %in% c(15, 19, 26))
```

```
## # A tibble: 47 × 4
##    manufacturer displ   cty   hwy
##           <chr> <dbl> <int> <int>
## 1          audi   2.0    19    27
## 2          audi   2.8    15    25
## 3          audi   3.1    15    25
## 4          audi   2.8    15    24
## 5     chevrolet   5.7    15    23
## 6     chevrolet   6.2    15    25
## 7     chevrolet   7.0    15    24
## 8     chevrolet   2.4    19    27
## 9         dodge   3.8    15    22
## 10        dodge   3.8    15    21
## # ... with 37 more rows
```

---

# `dplyr::`**`arrange()`**

**`arrange()`** reorders rows, sorting in ascending order.

```r
arrange(small_mpg, cty, hwy)
```

```
## # A tibble: 234 × 4
##    manufacturer displ   cty   hwy
##           <chr> <dbl> <int> <int>
## 1         dodge   4.7     9    12
## 2         dodge   4.7     9    12
## 3         dodge   4.7     9    12
## 4         dodge   4.7     9    12
## 5          jeep   4.7     9    12
## 6     chevrolet   5.3    11    14
## 7          jeep   6.1    11    14
## 8     chevrolet   5.3    11    15
## 9     chevrolet   5.7    11    15
## 10        dodge   5.2    11    15
## # ... with 224 more rows
```

---

# `dplyr::`**`arrange()`**

Use **`desc()`** inside `arrange()` to arrange in descending order:

```r
arrange(small_mpg, desc(cty), desc(hwy))
```

```
## # A tibble: 234 × 4
##    manufacturer displ   cty   hwy
##           <chr> <dbl> <int> <int>
## 1    volkswagen   1.9    35    44
## 2    volkswagen   1.9    33    44
## 3    volkswagen   1.9    29    41
## 4        toyota   1.8    28    37
## 5         honda   1.6    28    33
## 6        toyota   1.8    26    35
## 7        toyota   1.8    26    35
## 8         honda   1.8    26    34
## 9         honda   1.8    25    36
## 10        honda   1.6    25    32
## # ... with 224 more rows
```

---

# `dplyr::`**`mutate()`**

**`mutate()`** creates new variables with functions of existing variables.

```r
mutate(small_mpg, mpg_diff = hwy - cty)
```

```
## # A tibble: 234 × 5
##    manufacturer displ   cty   hwy mpg_diff
##           <chr> <dbl> <int> <int>    <int>
## 1          audi   1.8    18    29       11
## 2          audi   1.8    21    29        8
## 3          audi   2.0    20    31       11
## 4          audi   2.0    21    30        9
## 5          audi   2.8    16    26       10
## 6          audi   2.8    18    26        8
## 7          audi   3.1    18    27        9
## 8          audi   1.8    18    26        8
## 9          audi   1.8    16    25        9
## 10         audi   2.0    20    28        8
## # ... with 224 more rows
```
…
